2011-10-04T02:51:12.7926250Z - 7856 - Debug - Getting 'fiftyOne/redirect' configuration from file 'B:\Study\ASP.NET.MVC\CustomRazorViewEngine\CustomRazorViewEngine\App_Data\51Degrees.mobi.config'.
2011-10-04T02:51:12.8141094Z - 7856 - Debug - Getting 'fiftyOne/wurfl' configuration from file 'B:\Study\ASP.NET.MVC\CustomRazorViewEngine\CustomRazorViewEngine\App_Data\51Degrees.mobi.config'.
2011-10-04T02:51:12.8805157Z - 7856 - Debug - Constructing MobileCapabilitiesProvider - Default
2011-10-04T02:51:15.2213360Z - 7856 - Debug - Initialising redirection module
2011-10-04T02:51:15.2359844Z - 7856 - Debug - Initialising redirection module static fields.
2011-10-04T02:51:15.2379375Z - 7856 - Debug - Initialising redirection module event handlers
2011-10-04T02:51:18.5582500Z - 7856 - Info - Loaded 14691 devices using 12720 strings in 3215ms
2011-10-04T02:51:22.5494610Z - 7856 - Debug - Initialising redirection module
2011-10-04T02:51:22.5494610Z - 7856 - Debug - Initialising redirection module event handlers
2011-10-04T02:51:22.5504375Z - 7856 - Debug - Initialising redirection module
2011-10-04T02:51:22.5504375Z - 7856 - Debug - Initialising redirection module event handlers
2011-10-04T02:51:33.6363750Z - 7856 - Debug - Request for 'http://localhost:55983/' with handler type 'System.Web.Mvc.MvcHandler' and current page '' is not a restricted page for redirect.
2011-10-04T02:51:33.6363750Z - 7856 - Debug - Request for 'http://localhost:55983/' with handler type 'System.Web.Mvc.MvcHandler' and current page '' is not a restricted page for redirect.
2011-10-04T02:51:33.6363750Z - 7856 - Debug - Redirecting device with useragent 'Mozilla/5.0 (iPad; U; CPU OS 3_2 like Mac OS X; en-us) AppleWebKit/531.21.10 (KHTML, like Gecko) Version/4.0.4 Mobile/7B334b Safari/531.21.10' from url 'http://localhost:55983/' to '~/Mobile/Default.aspx' due to 'default'.
2011-10-04T02:51:33.6363750Z - 7856 - Debug - Redirecting device with useragent 'Mozilla/5.0 (iPad; U; CPU OS 3_2 like Mac OS X; en-us) AppleWebKit/531.21.10 (KHTML, like Gecko) Version/4.0.4 Mobile/7B334b Safari/531.21.10' from url 'http://localhost:55983/' to '~/Mobile/Default.aspx' due to 'default'.
2011-10-04T02:52:12.4801250Z - 7856 - Debug - Disposing Redirection Module
2011-10-04T02:52:42.4850079Z - 7856 - Debug - Disposing Redirection Module
2011-10-04T02:53:30.6383282Z - 7856 - Debug - Disposing Redirection Module
2011-10-04T02:53:36.6656719Z - 5948 - Debug - Getting 'fiftyOne/redirect' configuration from file 'B:\Study\ASP.NET.MVC\CustomRazorViewEngine\CustomRazorViewEngine\App_Data\51Degrees.mobi.config'.
2011-10-04T02:53:36.6832500Z - 5948 - Debug - Getting 'fiftyOne/wurfl' configuration from file 'B:\Study\ASP.NET.MVC\CustomRazorViewEngine\CustomRazorViewEngine\App_Data\51Degrees.mobi.config'.
2011-10-04T02:53:36.7311016Z - 5948 - Debug - Constructing MobileCapabilitiesProvider - Default
2011-10-04T02:53:37.6490704Z - 5948 - Debug - Initialising redirection module
2011-10-04T02:53:37.6500469Z - 5948 - Debug - Initialising redirection module static fields.
2011-10-04T02:53:37.6520000Z - 5948 - Debug - Initialising redirection module event handlers
2011-10-04T02:53:41.0826641Z - 5948 - Info - Loaded 14691 devices using 12720 strings in 3375ms
2011-10-04T02:53:55.0680157Z - 5948 - Debug - Initialising redirection module
2011-10-04T02:53:55.0680157Z - 5948 - Debug - Initialising redirection module event handlers
2011-10-04T02:54:55.1822735Z - 5948 - Debug - Initialising redirection module
2011-10-04T02:54:55.1822735Z - 5948 - Debug - Initialising redirection module event handlers
2011-10-04T02:55:35.5279766Z - 5948 - Debug - Disposing Redirection Module
2011-10-04T02:56:05.5338360Z - 5948 - Debug - Disposing Redirection Module
2011-10-04T02:56:38.4967266Z - 5948 - Debug - Disposing Redirection Module
2011-10-04T02:56:38.9947735Z - 5948 - Debug - Getting 'fiftyOne/redirect' configuration from file 'B:\Study\ASP.NET.MVC\CustomRazorViewEngine\CustomRazorViewEngine\App_Data\51Degrees.mobi.config'.
2011-10-04T02:56:38.9996563Z - 5948 - Debug - Getting 'fiftyOne/wurfl' configuration from file 'B:\Study\ASP.NET.MVC\CustomRazorViewEngine\CustomRazorViewEngine\App_Data\51Degrees.mobi.config'.
2011-10-04T02:56:39.0074688Z - 5948 - Debug - Constructing MobileCapabilitiesProvider - Default
2011-10-04T02:56:39.5016094Z - 5948 - Debug - Initialising redirection module
2011-10-04T02:56:39.5045391Z - 5948 - Debug - Initialising redirection module static fields.
2011-10-04T02:56:39.5055157Z - 5948 - Debug - Initialising redirection module event handlers
2011-10-04T02:56:43.0582500Z - 5948 - Info - Loaded 14691 devices using 12720 strings in 3507ms
2011-10-04T02:56:44.3590313Z - 5948 - Debug - Initialising redirection module
2011-10-04T02:56:44.3590313Z - 5948 - Debug - Initialising redirection module event handlers
2011-10-04T02:56:44.3590313Z - 5948 - Debug - Initialising redirection module
2011-10-04T02:56:44.3590313Z - 5948 - Debug - Initialising redirection module event handlers
2011-10-04T02:57:37.7760235Z - 7944 - Debug - Getting 'fiftyOne/redirect' configuration from file 'B:\Study\ASP.NET.MVC\CustomRazorViewEngine\CustomRazorViewEngine\App_Data\51Degrees.mobi.config'.
2011-10-04T02:57:37.7818829Z - 7944 - Debug - Getting 'fiftyOne/wurfl' configuration from file 'B:\Study\ASP.NET.MVC\CustomRazorViewEngine\CustomRazorViewEngine\App_Data\51Degrees.mobi.config'.
2011-10-04T02:57:37.7965313Z - 7944 - Debug - Constructing MobileCapabilitiesProvider - Default
2011-10-04T02:58:18.5426250Z - 5948 - Debug - Disposing Redirection Module
2011-10-04T02:58:18.5426250Z - 5948 - Debug - Disposing Redirection Module
2011-10-04T02:58:18.5426250Z - 5948 - Debug - Disposing Redirection Module
